{
  "images" : [
    {
      "idiom" : "universal",
      "scale" : "1x",
      "filename" : "settings2-32.png"
    },
    {
      "idiom" : "universal",
      "scale" : "2x"
    }
  ],
  "info" : {
    "version" : 1,
    "author" : "xcode"
  }
}